<?xml version='1.0' encoding='utf-8'?>
<gexf xmlns="http://www.gexf.net/1.2draft" xmlns:xsi="http://www.w3.org/2001/XMLSchema-instance" xsi:schemaLocation="http://www.gexf.net/1.2draft http://www.gexf.net/1.2draft/gexf.xsd" version="1.2">
  <meta lastmodifieddate="2022-11-18">
    <creator>NetworkX 2.8.6</creator>
  </meta>
  <graph defaultedgetype="directed" mode="static" name="">
    <attributes mode="static" class="edge">
      <attribute id="4" title="soften" type="boolean" />
    </attributes>
    <attributes mode="static" class="node">
      <attribute id="0" title="size" type="double" />
      <attribute id="1" title="soften" type="boolean" />
      <attribute id="2" title="leaf" type="boolean" />
      <attribute id="3" title="root" type="boolean" />
    </attributes>
    <nodes>
      <node id="calculator.startup" label="calculator.startup">
        <attvalues>
          <attvalue for="0" value="2.5" />
          <attvalue for="1" value="false" />
        </attvalues>
      </node>
      <node id="opentea" label="opentea">
        <attvalues>
          <attvalue for="0" value="0.4" />
          <attvalue for="1" value="false" />
          <attvalue for="2" value="true" />
        </attvalues>
      </node>
      <node id="opentea.cli" label="opentea.cli">
        <attvalues>
          <attvalue for="0" value="3.5" />
          <attvalue for="1" value="false" />
          <attvalue for="3" value="true" />
        </attvalues>
      </node>
      <node id="opentea.gui_forms._base" label="opentea.gui_forms._base">
        <attvalues>
          <attvalue for="0" value="10.95" />
          <attvalue for="1" value="false" />
        </attvalues>
      </node>
      <node id="opentea.gui_forms._exceptions" label="opentea.gui_forms._exceptions">
        <attvalues>
          <attvalue for="0" value="0.5" />
          <attvalue for="1" value="false" />
          <attvalue for="2" value="true" />
        </attvalues>
      </node>
      <node id="opentea.gui_forms.generic_widgets" label="opentea.gui_forms.generic_widgets">
        <attvalues>
          <attvalue for="0" value="13.95" />
          <attvalue for="1" value="false" />
          <attvalue for="2" value="true" />
        </attvalues>
      </node>
      <node id="opentea.gui_forms.leaf_widgets" label="opentea.gui_forms.leaf_widgets">
        <attvalues>
          <attvalue for="0" value="73.1" />
          <attvalue for="1" value="false" />
        </attvalues>
      </node>
      <node id="opentea.gui_forms.menus" label="opentea.gui_forms.menus">
        <attvalues>
          <attvalue for="0" value="10.75" />
          <attvalue for="1" value="false" />
        </attvalues>
      </node>
      <node id="opentea.gui_forms.node_widgets" label="opentea.gui_forms.node_widgets">
        <attvalues>
          <attvalue for="0" value="82.75" />
          <attvalue for="1" value="false" />
        </attvalues>
      </node>
      <node id="opentea.gui_forms.otinker" label="opentea.gui_forms.otinker">
        <attvalues>
          <attvalue for="0" value="4.6" />
          <attvalue for="1" value="false" />
        </attvalues>
      </node>
      <node id="opentea.gui_forms.root_widget" label="opentea.gui_forms.root_widget">
        <attvalues>
          <attvalue for="0" value="16.35" />
          <attvalue for="1" value="false" />
        </attvalues>
      </node>
      <node id="opentea.gui_forms.viewer_2d" label="opentea.gui_forms.viewer_2d">
        <attvalues>
          <attvalue for="0" value="1.6" />
          <attvalue for="1" value="false" />
          <attvalue for="2" value="true" />
        </attvalues>
      </node>
      <node id="opentea.gui_forms.viewer_3d" label="opentea.gui_forms.viewer_3d">
        <attvalues>
          <attvalue for="0" value="4.2" />
          <attvalue for="1" value="false" />
          <attvalue for="2" value="true" />
        </attvalues>
      </node>
      <node id="opentea.noob.asciigraph" label="opentea.noob.asciigraph">
        <attvalues>
          <attvalue for="0" value="9.1" />
          <attvalue for="1" value="false" />
          <attvalue for="2" value="true" />
        </attvalues>
      </node>
      <node id="opentea.noob.check_schema" label="opentea.noob.check_schema">
        <attvalues>
          <attvalue for="0" value="10.2" />
          <attvalue for="1" value="false" />
          <attvalue for="2" value="true" />
        </attvalues>
      </node>
      <node id="opentea.noob.inferdefault" label="opentea.noob.inferdefault">
        <attvalues>
          <attvalue for="0" value="14.4" />
          <attvalue for="1" value="false" />
        </attvalues>
      </node>
      <node id="opentea.noob.schema" label="opentea.noob.schema">
        <attvalues>
          <attvalue for="0" value="1.4" />
          <attvalue for="1" value="false" />
          <attvalue for="2" value="true" />
        </attvalues>
      </node>
      <node id="opentea.noob.validate_light" label="opentea.noob.validate_light">
        <attvalues>
          <attvalue for="0" value="9.4" />
          <attvalue for="1" value="false" />
          <attvalue for="2" value="true" />
        </attvalues>
      </node>
      <node id="opentea.noob.validation" label="opentea.noob.validation">
        <attvalues>
          <attvalue for="0" value="18.2" />
          <attvalue for="1" value="false" />
        </attvalues>
      </node>
      <node id="opentea.tools.proxy_h5" label="opentea.tools.proxy_h5">
        <attvalues>
          <attvalue for="0" value="13.55" />
          <attvalue for="1" value="false" />
          <attvalue for="3" value="true" />
          <attvalue for="2" value="true" />
        </attvalues>
      </node>
      <node id="simple.startup" label="simple.startup">
        <attvalues>
          <attvalue for="0" value="2.5" />
          <attvalue for="1" value="false" />
        </attvalues>
      </node>
      <node id="trivial.startup" label="trivial.startup">
        <attvalues>
          <attvalue for="0" value="2.5" />
          <attvalue for="1" value="false" />
        </attvalues>
      </node>
      <node id="opentea.gui_forms" label="opentea.gui_forms">
        <attvalues>
          <attvalue for="0" value="10" />
          <attvalue for="1" value="true" />
          <attvalue for="3" value="true" />
        </attvalues>
      </node>
      <node id="opentea.noob" label="opentea.noob">
        <attvalues>
          <attvalue for="0" value="10" />
          <attvalue for="1" value="true" />
          <attvalue for="3" value="true" />
        </attvalues>
      </node>
      <node id="opentea.tools" label="opentea.tools">
        <attvalues>
          <attvalue for="0" value="10" />
          <attvalue for="1" value="true" />
          <attvalue for="3" value="true" />
        </attvalues>
      </node>
    </nodes>
    <edges>
      <edge source="calculator.startup" target="opentea.gui_forms.otinker" id="0" />
      <edge source="opentea" target="opentea.cli" id="1">
        <attvalues>
          <attvalue for="4" value="true" />
        </attvalues>
      </edge>
      <edge source="opentea.cli" target="opentea.noob.check_schema" id="2" />
      <edge source="opentea.cli" target="trivial.startup" id="3" />
      <edge source="opentea.cli" target="simple.startup" id="4" />
      <edge source="opentea.cli" target="calculator.startup" id="5" />
      <edge source="opentea.gui_forms._base" target="opentea.gui_forms._exceptions" id="6" />
      <edge source="opentea.gui_forms.leaf_widgets" target="opentea.gui_forms.generic_widgets" id="7" />
      <edge source="opentea.gui_forms.leaf_widgets" target="opentea.gui_forms._exceptions" id="8" />
      <edge source="opentea.gui_forms.leaf_widgets" target="opentea.gui_forms._base" id="9" />
      <edge source="opentea.gui_forms.menus" target="opentea.gui_forms.generic_widgets" id="10" />
      <edge source="opentea.gui_forms.menus" target="opentea.noob.asciigraph" id="11" />
      <edge source="opentea.gui_forms.node_widgets" target="opentea.gui_forms._base" id="12" />
      <edge source="opentea.gui_forms.node_widgets" target="opentea.gui_forms.generic_widgets" id="13" />
      <edge source="opentea.gui_forms.node_widgets" target="opentea.gui_forms._exceptions" id="14" />
      <edge source="opentea.gui_forms.node_widgets" target="opentea.gui_forms.leaf_widgets" id="15" />
      <edge source="opentea.gui_forms.otinker" target="opentea.noob.validation" id="16" />
      <edge source="opentea.gui_forms.otinker" target="opentea" id="17" />
      <edge source="opentea.gui_forms.otinker" target="opentea.gui_forms.root_widget" id="18" />
      <edge source="opentea.gui_forms.root_widget" target="opentea.gui_forms.viewer_3d" id="19" />
      <edge source="opentea.gui_forms.root_widget" target="opentea.gui_forms.menus" id="20" />
      <edge source="opentea.gui_forms.root_widget" target="opentea.gui_forms.viewer_2d" id="21" />
      <edge source="opentea.gui_forms.root_widget" target="opentea.gui_forms.node_widgets" id="22" />
      <edge source="opentea.noob.inferdefault" target="opentea.noob.validate_light" id="23" />
      <edge source="opentea.noob.validation" target="opentea.noob.inferdefault" id="24" />
      <edge source="opentea.noob.validation" target="opentea.noob.validate_light" id="25" />
      <edge source="opentea.noob.validation" target="opentea.noob.schema" id="26" />
      <edge source="simple.startup" target="opentea.gui_forms.otinker" id="27" />
      <edge source="trivial.startup" target="opentea.gui_forms.otinker" id="28" />
      <edge source="opentea.gui_forms" target="opentea.gui_forms._base" id="29">
        <attvalues>
          <attvalue for="4" value="true" />
        </attvalues>
      </edge>
      <edge source="opentea.gui_forms" target="opentea.gui_forms._exceptions" id="30">
        <attvalues>
          <attvalue for="4" value="true" />
        </attvalues>
      </edge>
      <edge source="opentea.gui_forms" target="opentea.gui_forms.generic_widgets" id="31">
        <attvalues>
          <attvalue for="4" value="true" />
        </attvalues>
      </edge>
      <edge source="opentea.gui_forms" target="opentea.gui_forms.leaf_widgets" id="32">
        <attvalues>
          <attvalue for="4" value="true" />
        </attvalues>
      </edge>
      <edge source="opentea.gui_forms" target="opentea.gui_forms.menus" id="33">
        <attvalues>
          <attvalue for="4" value="true" />
        </attvalues>
      </edge>
      <edge source="opentea.gui_forms" target="opentea.gui_forms.node_widgets" id="34">
        <attvalues>
          <attvalue for="4" value="true" />
        </attvalues>
      </edge>
      <edge source="opentea.gui_forms" target="opentea.gui_forms.otinker" id="35">
        <attvalues>
          <attvalue for="4" value="true" />
        </attvalues>
      </edge>
      <edge source="opentea.gui_forms" target="opentea.gui_forms.root_widget" id="36">
        <attvalues>
          <attvalue for="4" value="true" />
        </attvalues>
      </edge>
      <edge source="opentea.gui_forms" target="opentea.gui_forms.viewer_2d" id="37">
        <attvalues>
          <attvalue for="4" value="true" />
        </attvalues>
      </edge>
      <edge source="opentea.gui_forms" target="opentea.gui_forms.viewer_3d" id="38">
        <attvalues>
          <attvalue for="4" value="true" />
        </attvalues>
      </edge>
      <edge source="opentea.noob" target="opentea.noob.asciigraph" id="39">
        <attvalues>
          <attvalue for="4" value="true" />
        </attvalues>
      </edge>
      <edge source="opentea.noob" target="opentea.noob.check_schema" id="40">
        <attvalues>
          <attvalue for="4" value="true" />
        </attvalues>
      </edge>
      <edge source="opentea.noob" target="opentea.noob.inferdefault" id="41">
        <attvalues>
          <attvalue for="4" value="true" />
        </attvalues>
      </edge>
      <edge source="opentea.noob" target="opentea.noob.schema" id="42">
        <attvalues>
          <attvalue for="4" value="true" />
        </attvalues>
      </edge>
      <edge source="opentea.noob" target="opentea.noob.validate_light" id="43">
        <attvalues>
          <attvalue for="4" value="true" />
        </attvalues>
      </edge>
      <edge source="opentea.noob" target="opentea.noob.validation" id="44">
        <attvalues>
          <attvalue for="4" value="true" />
        </attvalues>
      </edge>
      <edge source="opentea.tools" target="opentea.tools.proxy_h5" id="45">
        <attvalues>
          <attvalue for="4" value="true" />
        </attvalues>
      </edge>
    </edges>
  </graph>
</gexf>
